…
expressed_ligands = intersect(ligands,expressed_genes_sender)
expressed_receptors = intersect(receptors,expressed_genes_receiver)

potential_ligands = lr_network %>% filter(from %in% expressed_ligands & to %in% expressed_receptors) %>% pull(from) %>% unique()
```

#4) Perform NicheNet ligand activity analysis
```{r}
ligand_activities = predict_ligand_activities(geneset = geneset_oi, background_expressed_genes = background_expressed_genes, ligand_target_matrix = ligand_target_matrix, potential_ligands = potential_ligands)

ligand_activities = ligand_activities %>% arrange(-pearson) %>% mutate(rank = rank(desc(pearson)))
ligand_activities
## # A tibble: 44 x 5
##    test_ligand auroc  aupr pearson  rank
##    <chr>       <dbl> <dbl>   <dbl> <dbl>
##  1 Ebi3        0.662 0.238  0.219      1
##  2 Il15        0.596 0.160  0.109      2
##  3 Crlf2       0.560 0.160  0.0890     3
##  4 App         0.499 0.134  0.0750     4
##  5 Tgfb1       0.498 0.134  0.0631     5
##  6 Ptprc       0.539 0.142  0.0602     6
##  7 H2-M3       0.526 0.149  0.0533     7
##  8 Icam1       0.544 0.134  0.0496     8
##  9 Cxcl10      0.536 0.134  0.0457     9
## 10 Adam17      0.517 0.129  0.0378    10
## # ... with 34 more rows
```
…
